EESchema Schematic File Version 4
EELAYER 30 0
EELAYER END
$Descr A3 16535 11693
encoding utf-8
Sheet 1 1
Title "Oxi One Prototype"
Date "2021-01-14"
Rev "4"
Comp "Manuel Vazquez Rodriguez"
Comment1 ""
Comment2 ""
Comment3 ""
Comment4 ""
$EndDescr
Text Label 5775 4175 0    50   ~ 0
SWDIO_BLE
Text Label 5775 4375 0    50   ~ 0
GND
Text Label 5775 4075 0    50   ~ 0
SWCLK_BLE
Text Label 2975 3975 2    50   ~ 0
SWDIO_BLE
Text Label 2975 3875 2    50   ~ 0
SWCLK_BLE
NoConn ~ 4775 3775
NoConn ~ 4775 3875
NoConn ~ 4775 3975
NoConn ~ 4775 4075
NoConn ~ 4775 4175
NoConn ~ 4775 4275
Wire Wire Line
	5075 3025 5075 3075
NoConn ~ 4775 3275
NoConn ~ 4775 3175
NoConn ~ 4775 3075
NoConn ~ 4775 2975
NoConn ~ 4775 2875
NoConn ~ 4775 2675
NoConn ~ 4775 2775
NoConn ~ 4775 2575
NoConn ~ 2975 3775
NoConn ~ 4775 4675
NoConn ~ 4775 4575
NoConn ~ 4775 4475
NoConn ~ 4775 2375
NoConn ~ 4775 1875
NoConn ~ 4775 2175
NoConn ~ 4775 4375
NoConn ~ 3375 1675
NoConn ~ 3475 1675
NoConn ~ 3575 1675
NoConn ~ 3675 1675
NoConn ~ 4075 1675
Wire Wire Line
	4775 3375 5075 3375
Wire Wire Line
	6550 6350 6850 6350
Connection ~ 6550 6350
$Comp
L power:GND #PWR0284
U 1 1 5F705EB8
P 3875 4875
F 0 "#PWR0284" H 3875 4625 50  0001 C CNN
F 1 "GND" H 3880 4702 50  0000 C CNN
F 2 "" H 3875 4875 50  0001 C CNN
F 3 "" H 3875 4875 50  0001 C CNN
	1    3875 4875
	1    0    0    -1  
$EndComp
$Comp
L power:+3.3V #PWR0283
U 1 1 89DF178F
P 3875 1675
F 0 "#PWR0283" H 3875 1525 50  0001 C CNN
F 1 "+3.3V" H 3890 1848 50  0000 C CNN
F 2 "" H 3875 1675 50  0001 C CNN
F 3 "" H 3875 1675 50  0001 C CNN
	1    3875 1675
	1    0    0    -1  
$EndComp
$Comp
L power:GND #PWR0304
U 1 1 61926223
P 6850 6550
F 0 "#PWR0304" H 6850 6300 50  0001 C CNN
F 1 "GND" H 6855 6377 50  0000 C CNN
F 2 "" H 6850 6550 50  0001 C CNN
F 3 "" H 6850 6550 50  0001 C CNN
	1    6850 6550
	1    0    0    -1  
$EndComp
$Comp
L power:+3.3V #PWR0301
U 1 1 610A476C
P 6550 6350
F 0 "#PWR0301" H 6550 6200 50  0001 C CNN
F 1 "+3.3V" H 6565 6523 50  0000 C CNN
F 2 "" H 6550 6350 50  0001 C CNN
F 3 "" H 6550 6350 50  0001 C CNN
	1    6550 6350
	1    0    0    -1  
$EndComp
$Comp
L power:+3.3V #PWR0305
U 1 1 641F93B8
P 5075 2825
F 0 "#PWR0305" H 5075 2675 50  0001 C CNN
F 1 "+3.3V" H 5090 2998 50  0000 C CNN
F 2 "" H 5075 2825 50  0001 C CNN
F 3 "" H 5075 2825 50  0001 C CNN
	1    5075 2825
	1    0    0    -1  
$EndComp
$Comp
L Device:CP1_Small C184
U 1 1 610A8982
P 6850 6450
F 0 "C184" H 6941 6496 50  0000 L CNN
F 1 "100n" H 6941 6405 50  0000 L CNN
F 2 "Capacitor_SMD:C_0603_1608Metric" H 6850 6450 50  0001 C CNN
F 3 "~" H 6850 6450 50  0001 C CNN
F 4 "0603" H 6850 6450 50  0001 C CNN "Package"
F 5 "Capacitor, ceramic" H 6850 6450 50  0001 C CNN "Description"
F 6 "C478888" H 6850 6450 50  0001 C CNN "LCSC Part"
	1    6850 6450
	1    0    0    -1  
$EndComp
$Comp
L RF_Module:E73-2G4M04S-52832 U16
U 1 1 611722BC
P 3875 3275
F 0 "U16" H 3875 3275 50  0000 C CNN
F 1 "E73-2G4M04S-52832" H 3875 3175 50  0000 C CNN
F 2 "RF_Module:E73-2G4M04S" H 3875 3725 50  0001 C CNN
F 3 "http://www.cdebyte.com/en/downpdf.aspx?id=243" H 3875 3725 50  0001 C CNN
F 4 "C411305" H 3875 3275 50  0001 C CNN "LCSC Part"
F 5 "E73-2G4M04S1A" H 3875 3275 50  0001 C CNN "Ref. Other"
	1    3875 3275
	1    0    0    -1  
$EndComp
$Comp
L Device:R_Small R81
U 1 1 5D47C8C3
P 6550 6650
F 0 "R81" V 6475 6650 50  0000 C CNN
F 1 "10K" V 6625 6650 50  0000 C CNN
F 2 "LED_SMD:LED_0603_1608Metric" H 6550 6650 50  0001 C CNN
F 3 "~" H 6550 6650 50  0001 C CNN
F 4 "0603" H 6550 6650 50  0001 C CNN "Package"
F 5 "Resistor, 5%" H 6550 6650 50  0001 C CNN "Description"
F 6 "C73809" H 6550 6650 50  0001 C CNN "LCSC Part"
	1    6550 6650
	1    0    0    -1  
$EndComp
$Comp
L Device:R_Small R80
U 1 1 63EE4777
P 5075 2925
F 0 "R80" H 5016 2879 50  0000 R CNN
F 1 "220R" H 5016 2970 50  0000 R CNN
F 2 "LED_SMD:LED_0603_1608Metric" H 5075 2925 50  0001 C CNN
F 3 "~" H 5075 2925 50  0001 C CNN
F 4 "0603" H 5075 2925 50  0001 C CNN "Package"
F 5 "Resistor, 5%" H 5075 2925 50  0001 C CNN "Description"
F 6 "C92619" H 5075 2925 50  0001 C CNN "LCSC Part"
	1    5075 2925
	-1   0    0    1   
$EndComp
$Comp
L Device:LED D209
U 1 1 63EE4763
P 5075 3225
F 0 "D209" H 5075 3125 50  0000 C CNN
F 1 "BLE_LED1" H 5075 3325 50  0000 C CNN
F 2 "Diode_SMD:D_0603_1608Metric" H 5075 3225 50  0001 C CNN
F 3 "~" H 5075 3225 50  0001 C CNN
F 4 "0603 SMD LED White" H 5075 3225 50  0001 C CNN "Description"
F 5 "0603" H 5075 3225 50  0001 C CNN "Package"
F 6 "C205448" H 5075 3225 50  0001 C CNN "LCSC Part"
	1    5075 3225
	0    -1   -1   0   
$EndComp
$Comp
L Connector:Conn_01x04_Female SWD_BLE1
U 1 1 5DD4D7C6
P 5575 4275
F 0 "SWD_BLE1" H 5475 3975 50  0000 C CNN
F 1 "SWD" H 5467 3941 50  0001 C CNN
F 2 "Connector_PinHeader_2.54mm:PinHeader_1x04_P2.54mm_Vertical" H 5575 4275 50  0001 C CNN
F 3 "~" H 5575 4275 50  0001 C CNN
F 4 "-" H 5575 4275 50  0001 C CNN "LCSC Part"
F 5 "-" H 5575 4275 50  0001 C CNN "Package"
F 6 "-" H 5575 4275 50  0001 C CNN "Ref. Other"
	1    5575 4275
	-1   0    0    1   
$EndComp
$Comp
L Isolator:PC817 U17
U 1 1 5D48316F
P 6125 6925
F 0 "U17" H 6125 7225 50  0000 C CNN
F 1 "PC817" H 6125 7125 50  0000 C CNN
F 2 "Package_SO:SO-4_7.6x4.6mm_P2.54mm" H 5925 6625 50  0001 L CIN
F 3 "http://www.soselectronic.cz/a_info/resource/d/pc817.pdf" H 6125 6925 50  0001 L CNN
F 4 "" H 6125 6925 50  0001 C CNN "Description"
F 5 "" H 6125 6925 50  0001 C CNN "Package"
F 6 "C94737" H 6125 6925 50  0001 C CNN "LCSC Part"
F 7 "BPC-817S" H 6125 6925 50  0001 C CNN "Ref. Other"
	1    6125 6925
	1    0    0    -1  
$EndComp
$Comp
L Device:R_Small R70
U 1 1 5D47B167
P 5400 6775
F 0 "R70" V 5575 6775 50  0000 C CNN
F 1 "220R" V 5500 6775 50  0000 C CNN
F 2 "LED_SMD:LED_0603_1608Metric" H 5400 6775 50  0001 C CNN
F 3 "~" H 5400 6775 50  0001 C CNN
F 4 "0603" H 5400 6775 50  0001 C CNN "Package"
F 5 "Resistor, 5%" H 5400 6775 50  0001 C CNN "Description"
F 6 "C92619" H 5400 6775 50  0001 C CNN "LCSC Part"
	1    5400 6775
	0    -1   -1   0   
$EndComp
$Comp
L Device:D D205
U 1 1 5D47A2FD
P 5675 6925
F 0 "D205" H 5675 7025 42  0000 C CNN
F 1 "1N4148" H 5675 6826 42  0000 C CNN
F 2 "Diode_SMD:D_SOD-323" H 5675 6925 50  0001 C CNN
F 3 "" H 5675 6925 50  0001 C CNN
F 4 "1N4148 Diode SOD-323" H 5675 6925 50  0001 C CNN "Description"
F 5 "SOD-323" H 5675 6925 50  0001 C CNN "Package"
F 6 "C14538" H 5675 6925 50  0001 C CNN "LCSC Part"
F 7 "ST(Semtech)" H 5675 6925 50  0001 C CNN "Ref. Other"
	1    5675 6925
	0    1    1    0   
$EndComp
Wire Wire Line
	4775 2275 4925 2275
Wire Wire Line
	4775 2475 4925 2475
Wire Wire Line
	6550 6350 6550 6550
Wire Wire Line
	6425 6825 6550 6825
Wire Wire Line
	6550 6825 6550 6750
$Comp
L power:GND #PWR0299
U 1 1 60EB54AD
P 6500 7075
F 0 "#PWR0299" H 6500 6825 50  0001 C CNN
F 1 "GND" H 6505 6902 50  0000 C CNN
F 2 "" H 6500 7075 50  0001 C CNN
F 3 "" H 6500 7075 50  0001 C CNN
	1    6500 7075
	1    0    0    -1  
$EndComp
Wire Wire Line
	6500 7075 6500 7025
Wire Wire Line
	6500 7025 6425 7025
Wire Wire Line
	6550 6825 6875 6825
Connection ~ 6550 6825
NoConn ~ 4775 3675
NoConn ~ 4775 3575
NoConn ~ 4775 3475
NoConn ~ 5775 4275
Wire Notes Line
	2400 1375 2400 5150
Text Notes 4850 1700 0    118  ~ 24
BLE MODULE
Wire Notes Line
	2400 1375 6350 1375
Wire Notes Line
	2400 5150 6350 5150
Text Notes 12925 1400 0    118  ~ 24
MOUNTING HOLES
$Comp
L Mechanical:MountingHole H4
U 1 1 60201F37
P 13050 2550
F 0 "H4" H 13150 2596 50  0000 L CNN
F 1 "MountingHole" H 13150 2505 50  0000 L CNN
F 2 "MountingHole:MountingHole_3.2mm_M3_DIN965" H 13050 2550 50  0001 C CNN
F 3 "~" H 13050 2550 50  0001 C CNN
F 4 "-" H 13050 2550 50  0001 C CNN "LCSC Part"
F 5 "-" H 13050 2550 50  0001 C CNN "Package"
F 6 "-" H 13050 2550 50  0001 C CNN "Ref. Other"
	1    13050 2550
	1    0    0    -1  
$EndComp
$Comp
L Mechanical:MountingHole H3
U 1 1 608E8C34
P 13050 2350
F 0 "H3" H 13150 2396 50  0000 L CNN
F 1 "MountingHole" H 13150 2305 50  0000 L CNN
F 2 "MountingHole:MountingHole_3.2mm_M3_DIN965" H 13050 2350 50  0001 C CNN
F 3 "~" H 13050 2350 50  0001 C CNN
F 4 "-" H 13050 2350 50  0001 C CNN "LCSC Part"
F 5 "-" H 13050 2350 50  0001 C CNN "Package"
F 6 "-" H 13050 2350 50  0001 C CNN "Ref. Other"
	1    13050 2350
	1    0    0    -1  
$EndComp
$Comp
L Mechanical:MountingHole H2
U 1 1 608E8765
P 13050 2150
F 0 "H2" H 13150 2196 50  0000 L CNN
F 1 "MountingHole" H 13150 2105 50  0000 L CNN
F 2 "MountingHole:MountingHole_3.2mm_M3_DIN965" H 13050 2150 50  0001 C CNN
F 3 "~" H 13050 2150 50  0001 C CNN
F 4 "-" H 13050 2150 50  0001 C CNN "LCSC Part"
F 5 "-" H 13050 2150 50  0001 C CNN "Package"
F 6 "-" H 13050 2150 50  0001 C CNN "Ref. Other"
	1    13050 2150
	1    0    0    -1  
$EndComp
$Comp
L Mechanical:MountingHole H1
U 1 1 60201F45
P 13050 1950
F 0 "H1" H 13150 1996 50  0000 L CNN
F 1 "MountingHole" H 13150 1905 50  0000 L CNN
F 2 "MountingHole:MountingHole_3.2mm_M3_DIN965" H 13050 1950 50  0001 C CNN
F 3 "~" H 13050 1950 50  0001 C CNN
F 4 "-" H 13050 1950 50  0001 C CNN "LCSC Part"
F 5 "-" H 13050 1950 50  0001 C CNN "Package"
F 6 "-" H 13050 1950 50  0001 C CNN "Ref. Other"
	1    13050 1950
	1    0    0    -1  
$EndComp
$Comp
L Device:CP1_Small C2
U 1 1 6021CB22
P 5500 3000
F 0 "C2" H 5591 3046 50  0000 L CNN
F 1 "1u" H 5591 2955 50  0000 L CNN
F 2 "Capacitor_SMD:C_0603_1608Metric" H 5500 3000 50  0001 C CNN
F 3 "~" H 5500 3000 50  0001 C CNN
F 4 "0603" H 5500 3000 50  0001 C CNN "Package"
F 5 "Capacitor, ceramic" H 5500 3000 50  0001 C CNN "Description"
F 6 "C478888" H 5500 3000 50  0001 C CNN "LCSC Part"
	1    5500 3000
	1    0    0    -1  
$EndComp
$Comp
L power:GND #PWR0101
U 1 1 6021D7A8
P 5500 3150
F 0 "#PWR0101" H 5500 2900 50  0001 C CNN
F 1 "GND" H 5505 2977 50  0000 C CNN
F 2 "" H 5500 3150 50  0001 C CNN
F 3 "" H 5500 3150 50  0001 C CNN
	1    5500 3150
	1    0    0    -1  
$EndComp
Wire Wire Line
	5500 3150 5500 3100
Wire Wire Line
	5500 2900 5500 2850
$Comp
L power:+3.3V #PWR0102
U 1 1 6021FEEB
P 5500 2850
F 0 "#PWR0102" H 5500 2700 50  0001 C CNN
F 1 "+3.3V" H 5515 3023 50  0000 C CNN
F 2 "" H 5500 2850 50  0001 C CNN
F 3 "" H 5500 2850 50  0001 C CNN
	1    5500 2850
	1    0    0    -1  
$EndComp
Wire Wire Line
	5675 7075 5825 7025
Connection ~ 5675 7075
Wire Wire Line
	5500 6775 5675 6775
Wire Wire Line
	5825 6825 5675 6775
Connection ~ 5675 6775
$Comp
L Connector:DIN-5_180degree J1
U 1 1 60A9560B
P 3575 7175
F 0 "J1" H 3575 6900 50  0000 C CNN
F 1 "MIDI_OUT" H 3575 6809 50  0000 C CNN
F 2 "Connectors:SDS-50J_Aliexpress" H 3575 7175 50  0001 C CNN
F 3 "http://www.mouser.com/ds/2/18/40_c091_abd_e-75918.pdf" H 3575 7175 50  0001 C CNN
	1    3575 7175
	1    0    0    -1  
$EndComp
$Comp
L Connector:DIN-5_180degree J2
U 1 1 60A97DBC
P 5000 7175
F 0 "J2" H 5000 6900 50  0000 C CNN
F 1 "MIDI_IN" H 5000 6809 50  0000 C CNN
F 2 "Connectors:SDS-50J_Aliexpress" H 5000 7175 50  0001 C CNN
F 3 "http://www.mouser.com/ds/2/18/40_c091_abd_e-75918.pdf" H 5000 7175 50  0001 C CNN
	1    5000 7175
	1    0    0    -1  
$EndComp
Text GLabel 3950 6625 1    50   Input ~ 0
USART0_TX
$Comp
L power:GND #PWR0106
U 1 1 60A99B54
P 1975 7200
F 0 "#PWR0106" H 1975 6950 50  0001 C CNN
F 1 "GND" H 1980 7027 50  0000 C CNN
F 2 "" H 1975 7200 50  0001 C CNN
F 3 "" H 1975 7200 50  0001 C CNN
	1    1975 7200
	1    0    0    -1  
$EndComp
$Comp
L Device:CP1_Small C1
U 1 1 60A99B69
P 1975 7025
F 0 "C1" H 1750 7050 50  0000 L CNN
F 1 "100n" H 1700 6975 50  0000 L CNN
F 2 "Capacitor_SMD:C_0603_1608Metric" H 1975 7025 50  0001 C CNN
F 3 "~" H 1975 7025 50  0001 C CNN
F 4 "0603" H 1975 7025 50  0001 C CNN "Package"
F 5 "Capacitor, ceramic" H 1975 7025 50  0001 C CNN "Description"
F 6 "C478888" H 1975 7025 50  0001 C CNN "LCSC Part"
	1    1975 7025
	1    0    0    -1  
$EndComp
Wire Wire Line
	3125 7075 3275 7075
Wire Wire Line
	3875 7075 3950 7075
Wire Wire Line
	3950 7075 3950 6950
NoConn ~ 4700 7175
NoConn ~ 5000 6875
NoConn ~ 5300 7175
NoConn ~ 3275 7175
NoConn ~ 3875 7175
NoConn ~ 3575 6875
$Comp
L Device:R_Small R4
U 1 1 60ACB35E
P 3950 6850
F 0 "R4" H 3891 6804 50  0000 R CNN
F 1 "100R" H 3891 6895 50  0000 R CNN
F 2 "LED_SMD:LED_0603_1608Metric" H 3950 6850 50  0001 C CNN
F 3 "~" H 3950 6850 50  0001 C CNN
F 4 "0603" H 3950 6850 50  0001 C CNN "Package"
F 5 "Resistor, 5%" H 3950 6850 50  0001 C CNN "Description"
F 6 "C304688" H 3950 6850 50  0001 C CNN "LCSC Part"
	1    3950 6850
	1    0    0    1   
$EndComp
Wire Wire Line
	3950 6750 3950 6625
Text Notes 4200 5875 0    118  ~ 24
MIDI
Text GLabel 4925 2275 2    50   Input ~ 0
USART0_TX
Text GLabel 4925 2475 2    50   Input ~ 0
USART0_RX
Text GLabel 6875 6825 2    50   Input ~ 0
USART0_RX
Wire Wire Line
	5300 6775 4525 6775
Wire Wire Line
	4525 6775 4525 7075
Wire Wire Line
	4525 7075 4700 7075
Wire Notes Line
	6350 1375 6350 5150
Text Notes 1900 6175 0    50   ~ 0
Prevent over tension in case of 5V devices
Wire Wire Line
	3125 6950 3125 7075
$Comp
L power:+3.3V #PWR0103
U 1 1 60206FF9
P 1975 6850
F 0 "#PWR0103" H 1975 6700 50  0001 C CNN
F 1 "+3.3V" H 1990 7023 50  0000 C CNN
F 2 "" H 1975 6850 50  0001 C CNN
F 3 "" H 1975 6850 50  0001 C CNN
	1    1975 6850
	1    0    0    -1  
$EndComp
$Comp
L Device:D_Zener D1
U 1 1 60208165
P 2275 7050
F 0 "D1" V 2229 7130 50  0000 L CNN
F 1 "D_Zener_3.3V" V 2320 7130 50  0000 L CNN
F 2 "Diode_SMD:D_SOD-323" H 2275 7050 50  0001 C CNN
F 3 "~" H 2275 7050 50  0001 C CNN
	1    2275 7050
	0    1    1    0   
$EndComp
$Comp
L power:+5V #PWR0104
U 1 1 6020A5C7
P 3125 6950
F 0 "#PWR0104" H 3125 6800 50  0001 C CNN
F 1 "+5V" H 3140 7123 50  0000 C CNN
F 2 "" H 3125 6950 50  0001 C CNN
F 3 "" H 3125 6950 50  0001 C CNN
	1    3125 6950
	1    0    0    -1  
$EndComp
$Comp
L power:+5V #PWR0105
U 1 1 6020AC47
P 2275 6575
F 0 "#PWR0105" H 2275 6425 50  0001 C CNN
F 1 "+5V" H 2290 6748 50  0000 C CNN
F 2 "" H 2275 6575 50  0001 C CNN
F 3 "" H 2275 6575 50  0001 C CNN
	1    2275 6575
	1    0    0    -1  
$EndComp
$Comp
L Device:R_Small R1
U 1 1 6020C1E1
P 2275 6725
F 0 "R1" H 2216 6679 50  0000 R CNN
F 1 "100R" H 2216 6770 50  0000 R CNN
F 2 "LED_SMD:LED_0603_1608Metric" H 2275 6725 50  0001 C CNN
F 3 "~" H 2275 6725 50  0001 C CNN
F 4 "0603" H 2275 6725 50  0001 C CNN "Package"
F 5 "Resistor, 5%" H 2275 6725 50  0001 C CNN "Description"
F 6 "C92619" H 2275 6725 50  0001 C CNN "LCSC Part"
	1    2275 6725
	-1   0    0    1   
$EndComp
Wire Wire Line
	2275 6625 2275 6575
Wire Wire Line
	2275 6900 2275 6850
Wire Wire Line
	1975 7200 2275 7200
Wire Wire Line
	1975 7125 1975 7200
Connection ~ 1975 7200
Wire Wire Line
	1975 6925 1975 6850
Wire Wire Line
	1975 6850 2275 6850
Connection ~ 2275 6850
Wire Wire Line
	2275 6850 2275 6825
Connection ~ 1975 6850
Wire Notes Line
	1300 5625 7925 5625
Wire Notes Line
	7925 5625 7925 7925
Wire Notes Line
	7925 7925 1300 7925
Wire Notes Line
	1300 7925 1300 5625
$Comp
L power:GND #PWR0107
U 1 1 60223A98
P 5500 7075
F 0 "#PWR0107" H 5500 6825 50  0001 C CNN
F 1 "GND" H 5505 6902 50  0000 C CNN
F 2 "" H 5500 7075 50  0001 C CNN
F 3 "" H 5500 7075 50  0001 C CNN
	1    5500 7075
	1    0    0    -1  
$EndComp
Wire Wire Line
	5300 7075 5500 7075
Connection ~ 5500 7075
Wire Wire Line
	5500 7075 5675 7075
$EndSCHEMATC
